<svg class="ldi-vjv9g0" width="200px"  height="200px"  xmlns="http://www.w3.org/2000/svg" xmlns:xlink="http://www.w3.org/1999/xlink" viewBox="0 0 100 100" preserveAspectRatio="xMidYMid" style="background: none;"><!--?xml version="1.0" encoding="utf-8"?--><!--Generator: Adobe Illustrator 21.0.0, SVG Export Plug-In . SVG Version: 6.00 Build 0)--><svg version="1.1" id="圖層_1" xmlns="http://www.w3.org/2000/svg" xmlns:xlink="http://www.w3.org/1999/xlink" x="0px" y="0px" viewBox="0 0 100 100" style="transform-origin: 50px 50px 0px;" xml:space="preserve"><g style="transform-origin: 50px 50px 0px;"><g style="transform-origin: 50px 50px 0px; transform: scale(0.6);"><g style="transform-origin: 50px 50px 0px;"><g><style type="text/css" class="ld ld-breath" style="transform-origin: 50px 50px 0px; animation-duration: 1s; animation-delay: -1s; animation-direction: normal;">.st0,.st1{stroke-width:3.5;stroke-linejoin:round;stroke-miterlimit:10}.st0{fill:#abbd80;stroke:#333}.st1{opacity:.2;stroke:#000}.st2,.st3{stroke:#333}.st2{stroke-width:3.5;stroke-linecap:round;stroke-linejoin:round;stroke-miterlimit:10;fill:none}.st3{fill:#f3e5c7}.st3,.st4,.st5{stroke-width:3.5;stroke-linejoin:round;stroke-miterlimit:10}.st4{fill:#67503b;stroke:#333}.st5{stroke:#fff;stroke-linecap:round}.st6{fill:#333}.st10,.st7,.st8,.st9{fill:#e0e0e0;stroke:#333;stroke-width:3.5;stroke-miterlimit:10}.st10,.st8,.st9{fill:#cccbca}.st10,.st9{fill:#e6e6e5}.st10{fill:#a0c7d6}.st11{fill:#e0e0e0}.st12,.st13,.st14,.st15,.st16{fill:#f3e5c7;stroke:#333;stroke-width:3.5;stroke-miterlimit:10}.st13,.st14,.st15,.st16{fill:#9dc3d1}.st14,.st15,.st16{fill:#77a4bd}.st15,.st16{fill:#b2b3b3}.st16{fill:none;stroke:#fff;stroke-width:4;stroke-linecap:round}.st17{fill:#fff}.st18,.st19,.st20{stroke-width:3.5;stroke-miterlimit:10}.st18{opacity:.2;stroke:#000}.st19,.st20{fill:#dfdfdf;stroke:#333}.st20{fill:#f6b16a}.st21{fill:#f3e5c7}.st22{fill:#f37e5f;stroke:#333;stroke-width:3.5;stroke-miterlimit:10}.st23{fill:#fff;stroke:#333}.st23,.st24,.st25{stroke-width:3.5;stroke-miterlimit:10}.st24{stroke-linecap:round;fill:none;stroke:#fff}.st25{fill:#66503a;stroke:#333}.st26,.st27,.st28,.st29,.st30{fill:none;stroke:#76a3bc;stroke-width:3.7112;stroke-linecap:round;stroke-miterlimit:10}.st27,.st28,.st29,.st30{stroke:#e15c64}.st28,.st29,.st30{stroke:#839a86}.st29,.st30{stroke:#f7b16a}.st30{stroke:#fff;stroke-width:3.5;stroke-linejoin:round}.st31{fill:#fefefe}.st32{fill:#323232}.st33{fill:#c33636;stroke:#333;stroke-width:3.5;stroke-miterlimit:10}.st34{opacity:.2}.st35,.st36,.st37{stroke-width:3.5;stroke-miterlimit:10}.st35{stroke-linecap:round;fill:#c33636;stroke:#fff}.st36,.st37{fill:#abbc80;stroke:#333}.st37{fill:#f7b16a}.st38{fill:#4a3826}.st39{fill:#f7b16a}.st40{fill:#e15b64}.st41{fill:#abbd81}.st42{fill:#ffdc6c}.st43{fill:#e15b64}.st43,.st44,.st45,.st46{stroke:#333;stroke-width:3.5;stroke-miterlimit:10}.st44{stroke-linejoin:round;fill:#abbd81}.st45,.st46{fill:#ffdc6c}.st46{fill:none;stroke-linecap:round}.st47{fill:#9dc3d1}.st48{fill:#769fb6}.st49,.st50,.st51{fill:#e2d5b9;stroke:#333;stroke-width:3.5;stroke-miterlimit:10}.st50,.st51{fill:#e15c64}.st51{fill:#f5e6c8}.st52{fill:#cccbca}.st53{fill:#e6e6e5}.st54{fill:#a0c7d6}.st55{fill:#666}.st56,.st57{fill:none;stroke-width:3.5;stroke-miterlimit:10}.st56{stroke-linecap:round;stroke:#666}.st57{stroke:#333}.st58{opacity:.2;fill:#fff}.st59{fill:#e0e0e0;stroke:#333;stroke-width:3.5;stroke-linejoin:round;stroke-miterlimit:10}.st60{fill:#abbd80}.st61{fill:#839a86}.st62{fill:#67503b}.st63,.st64,.st65{stroke-linecap:round}.st63{fill:#abbd80;stroke:#fff;stroke-width:2;stroke-miterlimit:10}.st64,.st65{stroke-linejoin:round}.st64{stroke:#333;stroke-width:3.5;stroke-miterlimit:10;fill:#abbd80}.st65{fill:#67503b}.st65,.st66,.st67,.st68{stroke:#333;stroke-width:3.5;stroke-miterlimit:10}.st66{stroke-linecap:round;stroke-linejoin:round;fill:#e0e0e0}.st67,.st68{fill:#abbd80}.st68{fill:#67503b}.st69{opacity:.3;fill:#fff}.st70,.st71{fill:none;stroke:#fff;stroke-width:3;stroke-linecap:round;stroke-miterlimit:10}.st71{fill:#f3e5c7;stroke-width:2}.st72{fill:#f8b26a}.st73{fill:#f7b16a;stroke:#333;stroke-width:3.5;stroke-linejoin:round;stroke-miterlimit:10}.st74{fill:#f4e069}.st75{fill:#e15c64}.st76,.st77{fill:#f4e069;stroke:#333;stroke-width:3.5;stroke-linejoin:round;stroke-miterlimit:10}.st77{fill:#e15c64}.st78{fill:#e15c65}.st79{fill:none;stroke:#f4e069;stroke-width:3.8671;stroke-linecap:round;stroke-miterlimit:10}.st80{fill:#e15c65;stroke:#333;stroke-width:3.5}.st80,.st81,.st82{stroke-miterlimit:10}.st81{fill:#e0e0e0;stroke-linecap:round;stroke:#fff;stroke-width:3.1169}.st82{stroke:#333;stroke-width:3.5}.st82,.st83{fill:#8c6339}.st84{fill:#a0c8d7;stroke:#333;stroke-width:3.5;stroke-miterlimit:10}.st85{fill:#76a3bc}.st86{fill:#f5e169}.st87,.st88,.st89{stroke-miterlimit:10}.st87{fill:#e0e0e0;stroke-linecap:round;stroke:#fff;stroke-width:1.7347}.st88,.st89{stroke:#000;stroke-width:3.5;stroke-linejoin:round}.st89{stroke:#333}.st89,.st90{fill:#f37e5f}.st91{fill:#e0c3c4}</style><g style="transform-origin: 50px 50px 0px;"><g><g class="ld ld-breath" style="transform-origin: 50px 50px 0px; animation-duration: 1s; animation-delay: -0.933333s; animation-direction: normal;"><path class="st8" d="M76.2,26H23.8l4.8-12.2c0.5-1.4,1.9-2.3,3.3-2.3h36.1c1.5,0,2.8,0.9,3.3,2.3L76.2,26z" fill="rgb(204, 203, 202)" stroke="rgb(51, 51, 51)" style="fill: rgb(204, 203, 202); stroke: rgb(51, 51, 51);"></path></g><g class="ld ld-breath" style="transform-origin: 50px 50px 0px; animation-duration: 1s; animation-delay: -0.866667s; animation-direction: normal;"><path class="st9" d="M67.1,91H32.9c-1.9,0-3.4-1.4-3.6-3.3l-6-60.1h53.3l-6,60.1C70.5,89.6,69,91,67.1,91z" stroke="rgb(51, 51, 51)" fill="rgb(230, 230, 229)" style="stroke: rgb(51, 51, 51); fill: rgb(230, 230, 229);"></path></g><g class="ld ld-breath" style="transform-origin: 50px 50px 0px; animation-duration: 1s; animation-delay: -0.8s; animation-direction: normal;"><path class="st7" d="M78.9,31.3H21.1c-1.4,0-2.6-1.2-2.6-2.6v-4c0-1.4,1.2-2.6,2.6-2.6h57.8c1.4,0,2.6,1.2,2.6,2.6v4 C81.5,30.1,80.3,31.3,78.9,31.3z" stroke="rgb(51, 51, 51)" fill="rgb(224, 224, 224)" style="stroke: rgb(51, 51, 51); fill: rgb(224, 224, 224);"></path></g></g></g><g class="ld ld-breath" style="transform-origin: 50px 50px 0px; animation-duration: 1s; animation-delay: -0.733333s; animation-direction: normal;"><path class="st10" d="M72.7,75.8l3.5-34.9c0.1-0.6-0.4-1.2-1.1-1.2H24.9c-0.6,0-1.1,0.6-1.1,1.2l3.5,34.9c0.1,0.6,0.5,1,1.1,1h43.3 C72.2,76.8,72.7,76.3,72.7,75.8z" stroke="rgb(51, 51, 51)" fill="rgb(160, 199, 214)" style="stroke: rgb(51, 51, 51); fill: rgb(160, 199, 214);"></path></g><metadata xmlns:d="https://loading.io/stock/" class="ld ld-breath" style="transform-origin: 50px 50px 0px; animation-duration: 1s; animation-delay: -0.666667s; animation-direction: normal;">
<d:name class="ld ld-breath" style="transform-origin: 50px 50px 0px; animation-duration: 1s; animation-delay: -0.6s; animation-direction: normal;">cup</d:name>
<d:tags class="ld ld-breath" style="transform-origin: 50px 50px 0px; animation-duration: 1s; animation-delay: -0.533333s; animation-direction: normal;">cup,drink,coffee,hot drink,bottle,cafe,tea,starbucks</d:tags>
<d:license class="ld ld-breath" style="transform-origin: 50px 50px 0px; animation-duration: 1s; animation-delay: -0.466667s; animation-direction: normal;">cc-by</d:license>
<d:slug class="ld ld-breath" style="transform-origin: 50px 50px 0px; animation-duration: 1s; animation-delay: -0.4s; animation-direction: normal;">vjv9g0</d:slug>
</metadata></g></g></g></g><style type="text/css" class="ld ld-breath" style="transform-origin: 50px 50px 0px; animation-duration: 1s; animation-delay: -0.333333s; animation-direction: normal;">@keyframes ld-breath {
  0% {
    -webkit-transform: scale(0.86);
    transform: scale(0.86);
  }
  50% {
    -webkit-transform: scale(1.06);
    transform: scale(1.06);
  }
  100% {
    -webkit-transform: scale(0.86);
    transform: scale(0.86);
  }
}
@-webkit-keyframes ld-breath {
  0% {
    -webkit-transform: scale(0.86);
    transform: scale(0.86);
  }
  50% {
    -webkit-transform: scale(1.06);
    transform: scale(1.06);
  }
  100% {
    -webkit-transform: scale(0.86);
    transform: scale(0.86);
  }
}
.ld.ld-breath {
  -webkit-animation: ld-breath 1s infinite;
  animation: ld-breath 1s infinite;
}
</style></svg></svg>